{
    "fields": [
        {
            "name": "TYP_ART",
            "description": "Type d'enregistrement",
            "type": "string",
            "nomenclature": "MS_ENR_V",
            "length": "1",
            "format": "default",
            "dateCreated": "2012",
            "dateDeleted": "",
            "dateMissing": [],
            "observation": "",
            "regle_gestion": "",
            "type_oracle": "string",
            "constraints": {
                "maxLength": 1
            }
        },
        {
            "name": "ETA_NUM_EPMSI",
            "description": "Numéro FINESS de l’entité juridique",
            "type": "string",
            "nomenclature": "FINESS:ej_finess",
            "length": "9",
            "format": "default",
            "dateCreated": "2012",
            "dateDeleted": "",
            "dateMissing": [],
            "observation": "",
            "regle_gestion": "",
            "type_oracle": "string",
            "constraints": {
                "maxLength": 9
            }
        },
        {
            "name": "ETA_NUM_TWO",
            "description": "Numéro FINESS de l’établissement (site géographique)",
            "type": "string",
            "nomenclature": "FINESS:et_finess",
            "length": "9",
            "format": "default",
            "dateCreated": "2012",
            "dateDeleted": "",
            "dateMissing": [],
            "observation": "",
            "regle_gestion": "",
            "type_oracle": "string",
            "constraints": {
                "maxLength": 9
            }
        },
        {
            "name": "RIP_NUM",
            "description": "Numéro séquentiel de séjour (idem RPSA)",
            "type": "string",
            "nomenclature": "-",
            "length": "6",
            "format": "default",
            "dateCreated": "2012",
            "dateDeleted": "",
            "dateMissing": [],
            "observation": "",
            "regle_gestion": "",
            "type_oracle": "string",
            "constraints": {
                "maxLength": 6
            }
        },
        {
            "name": "FAC_NUM",
            "description": "N° séquentiel de facture",
            "type": "string",
            "nomenclature": "-",
            "length": "3",
            "format": "default",
            "dateCreated": "2012",
            "dateDeleted": "",
            "dateMissing": [],
            "observation": "",
            "regle_gestion": "",
            "type_oracle": "string",
            "constraints": {
                "maxLength": 3
            }
        },
        {
            "name": "PSH_MDT",
            "description": "Mode de traitement",
            "type": "string",
            "nomenclature": "-",
            "length": "2",
            "format": "default",
            "dateCreated": "2012",
            "dateDeleted": "",
            "dateMissing": [],
            "observation": "",
            "regle_gestion": "",
            "type_oracle": "string",
            "constraints": {
                "maxLength": 2
            }
        },
        {
            "name": "PSH_DMT",
            "description": "Discipline de prestation (ex DMT)",
            "type": "string",
            "nomenclature": "-",
            "length": "3",
            "format": "default",
            "dateCreated": "2012",
            "dateDeleted": "",
            "dateMissing": [],
            "observation": "",
            "regle_gestion": "",
            "type_oracle": "string",
            "constraints": {
                "maxLength": 3
            }
        },
        {
            "name": "ANN_MOI",
            "description": "Mois et année",
            "type": "yearmonth",
            "nomenclature": "-",
            "length": "6",
            "format": "default",
            "dateCreated": "2012",
            "dateDeleted": "",
            "dateMissing": [],
            "observation": "",
            "regle_gestion": "",
            "type_oracle": "string"
        },
        {
            "name": "DEL_DAT_ENT",
            "description": "délai par rapport à la date d'entrée",
            "type": "number",
            "nomenclature": "-",
            "length": null,
            "format": "default",
            "dateCreated": "2012",
            "dateDeleted": "",
            "dateMissing": [],
            "observation": "",
            "regle_gestion": "",
            "type_oracle": "number"
        },
        {
            "name": "ACT_NBR",
            "description": "Quantité acte",
            "type": "integer",
            "nomenclature": "-",
            "length": null,
            "format": "default",
            "dateCreated": "2012",
            "dateDeleted": "",
            "dateMissing": [],
            "observation": "",
            "regle_gestion": "",
            "type_oracle": "number"
        },
        {
            "name": "NABM_COD",
            "description": "Code acte",
            "type": "string",
            "nomenclature": "IR_BIO_R",
            "length": "8",
            "format": "default",
            "dateCreated": "2012",
            "dateDeleted": "",
            "dateMissing": [],
            "observation": "",
            "regle_gestion": "",
            "type_oracle": "string",
            "constraints": {
                "maxLength": 8
            }
        }
    ],
    "name": "T_RIPaaFL",
    "title": "actes de Biologie",
    "produit": "PMSI RIM-P",
    "missingValues": [
        ""
    ],
    "foreignKeys": [
        {
            "fields": [
                "ETA_NUM_EPMSI",
                "RIP_NUM"
            ],
            "reference": {
                "resource": "T_RIPaaFB",
                "fields": [
                    "ETA_NUM_EPMSI",
                    "RIP_NUM"
                ]
            }
        },
        {
            "fields": [
                "TYP_ART"
            ],
            "reference": {
                "resource": "MS_ENR_V",
                "fields": [
                    "ENR_COD"
                ]
            },
            "description": "Nomenclature"
        },
        {
            "fields": [
                "NABM_COD"
            ],
            "reference": {
                "resource": "IR_BIO_R",
                "fields": [
                    "BIO_PRS_IDE"
                ]
            },
            "description": "Nomenclature"
        }
    ],
    "history": {
        "dateCreated": "2012",
        "dateDeleted": "",
        "dateMissing": []
    },
    "champ": "Privé",
    "observation": "Mise en colonnes des actes en 2015 (pr toutes les années)"
}